<?xml version="1.0" encoding="UTF-8"?>
<CustomTab xmlns="http://soap.sforce.com/2006/04/metadata">
    <label>Shipments Queue</label>
    <mobileReady>false</mobileReady>
    <motif>Custom59: Can</motif>
    <page>Shipments_Queue</page>
</CustomTab>
